{
  "openapi": "3.0.3",
  "info": {
    "title": "Info.Title",
    "description": "Info.Description",
    "termsOfService": "http://localhost:8080/info-TermsOfService",
    "contact": {
      "name": "admin",
      "url": "http://localhost:8080/info-contactAdmin",
      "email": "email@email.org"
    },
    "version": "v1.0.0"
  },
  "servers": [
    {
      "url": "/rpc",
      "description": "RPC Service"
    }
  ],
  "paths": {
    "/rpc#method_mame": {
      "summary": "Summary of the method_mame.",
      "description": "Description of the method_mame\nThe second line.\n",
      "post": {
        "tags": [
          "SomeTag"
        ],
        "operationId": "method_mame",
        "requestBody": {
          "content": {
            "application/json": {
              "schema": {
                "title": "Request body of the method_mame",
                "type": "object",
                "properties": {
                  "jsonrpc": {
                    "description": "A String specifying the version of the JSON-RPC protocol. MUST be exactly \"2.0\".",
                    "type": "string",
                    "enum": [
                      "2.0"
                    ]
                  },
                  "id": {
                    "description": "An identifier established by the Client.",
                    "type": "string",
                    "format": "uuid"
                  },
                  "method": {
                    "description": "A String containing the name of the method to be invoked.",
                    "type": "string",
                    "enum": [
                      "method_name"
                    ]
                  },
                  "params": {
                    "$ref": "#/components/schemas/Input"
                  }
                }
              }
            }
          },
          "required": true
        },
        "responses": {
          "200": {
            "description": "Response body of the method_name.",
            "content": {
              "application/json": {
                "schema": {
                  "title": "Request body of the method_mame",
                  "type": "object",
                  "properties": {
                    "jsonrpc": {
                      "description": "A String specifying the version of the JSON-RPC protocol. MUST be exactly \"2.0\".",
                      "type": "string",
                      "enum": [
                        "2.0"
                      ]
                    },
                    "id": {
                      "description": "It MUST be the same as the value of the id member in the Request.",
                      "type": "string",
                      "format": "uuid"
                    },
                    "error": {
                      "$ref": "#/components/schemas/rpcError"
                    },
                    "result": {
                      "$ref": "#/components/schemas/Output"
                    }
                  }
                }
              }
            }
          }
        }
      }
    }
  },
  "components": {
    "schemas": {
      "rpcError": {
        "title": "rpcError",
        "description": "REQUIRED on error. This member MUST NOT exist if there was no error triggered during invocation.",
        "type": "object",
        "properties": {
          "code": {
            "description": "A Number that indicates the error type that occurred.",
            "type": "integer",
            "format": "int64"
          },
          "message": {
            "description": "A String providing a short description of the error.",
            "type": "string"
          },
          "data": {
            "description": "A Primitive or Structured value that contains additional information about the error.",
            "type": "object"
          }
        }
      },
      "Input": {
        "title": "Input",
        "description": "Input params of the method_name.",
        "type": "object",
        "properties": {
          "field_param": {
            "type": "string"
          }
        }
      },
      "Output": {
        "title": "Output",
        "description": "Output params of the method_name.",
        "type": "object",
        "properties": {
          "field_result": {
            "type": "string"
          }
        }
      }
    },
    "securitySchemes": {
      "basicAuth": {
        "type": "http",
        "description": "basic auth of the service",
        "scheme": "basic"
      }
    }
  },
  "security": [
    {
      "basicAuth": []
    }
  ],
  "tags": [
    {
      "name": "SomeTag",
      "description": "SomeTag Description"
    }
  ]
}